mantissa_addsub_32/mantissa_addsub_32.sim/sim_1/behav/xsim/mantissa_addsub_tb.vcd
$date
   Thu Jun  5 20:18:44 2025
$end

$version
  2024.2.0
  $dumpfile ("mantissa_addsub_tb.vcd") 
$end

$timescale
  1ps
$end

$scope module tb_mantissa_addsub_32 $end
$var reg 1 ! A_sign $end
$var reg 1 " B_sign $end
$var reg 23 # A [22:0] $end
$var reg 23 $ B [22:0] $end
$var wire 23 % Sum [22:0] $end
$var wire 1 & Sign $end
$var wire 1 ' Overflow $end
$var integer 32 ( test_count [31:0] $end
$var integer 32 ) pass_count [31:0] $end
$var integer 32 * fail_count [31:0] $end
$scope module uut $end
$var wire 1 + A_sign $end
$var wire 1 , B_sign $end
$var wire 23 - A [22:0] $end
$var wire 23 . B [22:0] $end
$var wire 23 % Sum [22:0] $end
$var wire 1 & Sign $end
$var wire 1 ' Overflow $end
$var wire 24 / tmp [23:0] $end
$upscope $end
$scope task check_result $end
$var reg 23 0 exp_sum [22:0] $end
$var reg 1 1 exp_sign $end
$var reg 1 2 exp_overflow $end
$var reg 1600 3 test_name [1599:0] $end
$upscope $end
$upscope $end
$enddefinitions $end

#0
$dumpvars
0!
0"
b100000000000000000000 #
b1000000000000000000000 $
b1100000000000000000000 %
0&
0'
b0 (
b0 )
b0 *
0+
0,
b100000000000000000000 -
b1000000000000000000000 .
b1100000000000000000000 /
bx 0
x1
x2
bx 3
$end

#10000
b1 (
b1100000000000000000000 0
01
02
b10000100110111101110100011010000010000001110000011011110111001101101001011101000110100101110110011001010010000000101101001000000110000101100100011001000010000001101101011000010110011101101110011010010111010001110101011001000110010101110011 3

#11000
1!
1"
1&
b1 )
1+
1,

#21000
b10 (
11
b10000100110111101110100011010000010000001101110011001010110011101100001011101000110100101110110011001010010000000101101001000000110000101100100011001000010000001101101011000010110011101101110011010010111010001110101011001000110010101110011 3

#22000
0!
b1100000000000000000000 #
b100000000000000000000 $
b1000000000000000000000 %
0&
b10 )
0+
b1100000000000000000000 -
b100000000000000000000 .
b1000000000000000000000 /

#32000
b11 (
b10000000000000000000000 0
01
b10000100101010101000111001110100010000001000001001010110010110000100000010000100010110100101100001000000111001101101000011011110111010101101100011001000010000001110011011101010110001001110100011100100110000101100011011101000010000001100010011101010111010000100000011000010110010001100100011100110010000001101001011011100111001101110100011001010110000101100100 3

#33000
b100000000000000000000 #
b1100000000000000000000 $
1&
b1 *
b100000000000000000000 -
b1100000000000000000000 .

#43000
b100 (

#44000
1!
0"
b1100000000000000000000 #
b100000000000000000000 $
b10 *
1+
0,
b1100000000000000000000 -
b100000000000000000000 .

#54000
b101 (
11
b10000100101010101000111001110100010000001000001001011010010110000100000010000100010101100101100001000000111001101101000011011110111010101101100011001000010000001110011011101010110001001110100011100100110000101100011011101000010000001100010011101010111010000100000011000010110010001100100011100110010000001101001011011100111001101110100011001010110000101100100 3

#55000
b100000000000000000000 #
b1100000000000000000000 $
0&
b11 *
b100000000000000000000 -
b1100000000000000000000 .

#65000
b110 (

#66000
0!
1"
b100100011010001010110 #
b100100011010001010110 $
b0 %
b100 *
0+
1,
b100100011010001010110 -
b100100011010001010110 .
b0 /

#76000
b111 (
b0 0
01
b10001010111000101110101011000010110110000100000011011010110000101100111011011100110100101110100011101010110010001100101011100110010110000100000011001000110100101100110011001100110010101110010011001010110111001110100001000000111001101101001011001110110111001110011 3

#77000
0"
b11111111111111111111111 #
b1 $
1'
b11 )
0,
b11111111111111111111111 -
b1 .
b100000000000000000000000 /

#87000
b1000 (
12
b10000010110010001100100011010010111010001101001011011110110111000100000011011110111011001100101011100100110011001101100011011110111011100100000001011010010000001100010011011110111010001101000001000000111000001101111011100110110100101110100011010010111011001100101 3

#88000
1!
1"
b11000000000000000000000 #
b11000000000000000000000 $
b10000000000000000000000 %
1&
b100 )
1+
1,
b11000000000000000000000 -
b11000000000000000000000 .
b110000000000000000000000 /

#98000
b1001 (
11
02
b100001001101111011101000110100000100000011011100110010101100111011000010111010001101001011101100110010100100000001011010010000001110011011010000110111101110101011011000110010000100000011000010110010001100100001000000110000101101110011001000010000001101111011101100110010101110010011001100110110001101111011101110010110000100000011000100111010101110100001000000111001101110101011000100111010001110010011000010110001101110100011100110010000001101001011011100111001101110100011001010110000101100100 3

#99000
0!
0"
b0 #
b100100011010001010110 $
b100100011010001010110 %
0&
0'
b101 *
0+
0,
b0 -
b100100011010001010110 .
b100100011010001010110 /

#109000
b1010 (
b100100011010001010110 0
01
b10000010011110100110000001011000010000001110011011000010110110101100101001000000111001101101001011001110110111001110011 3

#110000
1!
1"
b100100011010001010110 #
b0 $
1&
b101 )
1+
1,
b100100011010001010110 -
b0 .

#120000
b1011 (
11
b10000100011110100110000001011000010000001110011011000010110110101100101001000000111001101101001011001110110111001110011 3

#121000
0!
b0 #
b100100011010001010110 $
b110 )
0+
b0 -
b100100011010001010110 .

#131000
b1100 (
01
b1000001001111010011000000101100001000000110010001101001011001100110011001100101011100100110010101101110011101000010000001110011011010010110011101101110011100110010000000101101001000000110001001110101011001110110011101111001001000000110000101100100011001000110100101110100011010010110111101101110 3

#132000
1!
0"
b100100011010001010110 #
b0 $
b110 *
1+
0,
b100100011010001010110 -
b0 .

#142000
b1101 (
11
b1000010001111010011000000101100001000000110010001101001011001100110011001100101011100100110010101101110011101000010000001110011011010010110011101101110011100110010000000101101001000000110001001110101011001110110011101111001001000000110000101100100011001000110100101110100011010010110111101101110 3

#143000
0!
b11111111111111111111111 #
b11111111111111111111111 $
b11111111111111111111110 %
0&
1'
b111 )
0+
b11111111111111111111111 -
b11111111111111111111111 .
b111111111111111111111110 /

#153000
b1110 (
b11111111111111111111110 0
01
12
b10011010110000101111000001000000111011001100001011011000111010101100101011100110010110000100000011100110110000101101101011001010010000001110011011010010110011101101110 3

#154000
1"
b1 $
0'
b1000 )
1,
b1 .
b11111111111111111111110 /

#164000
b1111 (
b0 0
b100100101101110011000110110111101110010011100100110010101100011011101000010000001101111011101100110010101110010011001100110110001101111011101110010000001100110011100100110111101101101001000000110000101100100011001000110100101110100011010010110111101101110001000000111011101101000011001010110111000100000011100110110100001101111011101010110110001100100001000000111001101110101011000100111010001110010011000010110001101110100 3

#165000
b11 #
b10 %
b111 *
b11 -
b10 /

#175000
b10000 (
b100 0
02
b1010011011010000110111101110101011011000110010000100000011100110111010101100010011101000111001001100001011000110111010000100000010000010010110101000010001111010011001000101100001000000110001001110101011101000010000001100001011001000110010001110011001000000100000100101011010000100011110100110100 3

#176000
1!
0"
b1 #
b11 $
b1000 *
1+
0,
b1 -
b11 .

#186000
b10001 (
11
b1010011011010000110111101110101011011000110010000100000011100110111010101100010011101000111001001100001011000110111010000100000010000100010110101000001001111010011001000101100001000000110001001110101011101000010000001100001011001000110010001110011001000000100000100101011010000100011110100110100 3

#187000
b1001 *
